04:45:52 AM.032: CPU Name: AMD Ryzen 7 3700X 8-Core Processor
04:45:52 AM.032: CPU Speed: 2800.000MHz
04:45:52 AM.032: Physical Cores: 8, Logical Cores: 16
04:45:52 AM.032: Physical Memory: 32046MB Total, 24147MB Free
04:45:52 AM.032: Kernel Version: Linux 5.13.10-arch1-1
04:45:52 AM.032: Distribution: "Arch Linux" Unknown
04:45:52 AM.032: Session Type: x11
04:45:52 AM.032: Window System: X11.0, Vendor: The X.Org Foundation, Version: 1.20.13
04:45:52 AM.033: Portable mode: false
04:45:52 AM.057: OBS 27.0.1-2 (linux)
04:45:52 AM.057: ---------------------------------
04:45:52 AM.057: ---------------------------------
04:45:52 AM.057: audio settings reset:
04:45:52 AM.057: 	samples per sec: 48000
04:45:52 AM.057: 	speakers:        2
04:45:52 AM.059: ---------------------------------
04:45:52 AM.059: Initializing OpenGL...
04:45:52 AM.120: Loading up OpenGL on adapter NVIDIA Corporation NVIDIA GeForce GTX 1650/PCIe/SSE2
04:45:52 AM.120: OpenGL loaded successfully, version 3.3.0 NVIDIA 470.63.01, shading language 3.30 NVIDIA via Cg compiler
04:45:52 AM.136: ---------------------------------
04:45:52 AM.136: video settings reset:
04:45:52 AM.136: 	base resolution:   1920x1080
04:45:52 AM.136: 	output resolution: 1920x1080
04:45:52 AM.136: 	downscale filter:  Bicubic
04:45:52 AM.136: 	fps:               60/1
04:45:52 AM.136: 	format:            NV12
04:45:52 AM.136: 	YUV mode:          709/Partial
04:45:52 AM.136: NV12 texture support not available
04:45:52 AM.136: Audio monitoring device:
04:45:52 AM.136: 	name: Default
04:45:52 AM.136: 	id: default
04:45:52 AM.136: ---------------------------------
04:45:52 AM.138: Failed to load 'en-US' text for module: 'decklink-captions.so'
04:45:52 AM.139: Failed to load 'en-US' text for module: 'decklink-ouput-ui.so'
04:45:52 AM.189: A DeckLink iterator could not be created.  The DeckLink drivers may not be installed
04:45:52 AM.189: No blackmagic support
04:45:52 AM.194: v4l2loopback not installed, virtual camera disabled
04:45:52 AM.197: NVENC supported
04:45:52 AM.197: FFMPEG VAAPI supported
04:45:52 AM.201: os_dlopen(/usr//lib/obs-plugins/sndio.so->/usr//lib/obs-plugins/sndio.so): libsndio.so.7.1: cannot open shared object file: No such file or directory
04:45:52 AM.201: 
04:45:52 AM.201: Module '/usr//lib/obs-plugins/sndio.so' not loaded
04:45:52 AM.202: ---------------------------------
04:45:52 AM.202:   Loaded Modules:
04:45:52 AM.202:     text-freetype2.so
04:45:52 AM.202:     rtmp-services.so
04:45:52 AM.202:     obs-x264.so
04:45:52 AM.202:     obs-transitions.so
04:45:52 AM.202:     obs-outputs.so
04:45:52 AM.202:     obs-libfdk.so
04:45:52 AM.202:     obs-filters.so
04:45:52 AM.202:     obs-ffmpeg.so
04:45:52 AM.202:     linux-v4l2.so
04:45:52 AM.202:     linux-pulseaudio.so
04:45:52 AM.202:     linux-jack.so
04:45:52 AM.202:     linux-decklink.so
04:45:52 AM.202:     linux-capture.so
04:45:52 AM.202:     linux-alsa.so
04:45:52 AM.202:     image-source.so
04:45:52 AM.202:     frontend-tools.so
04:45:52 AM.202:     decklink-ouput-ui.so
04:45:52 AM.202:     decklink-captions.so
04:45:52 AM.202: ---------------------------------
04:45:52 AM.202: ==== Startup complete ===============================================
04:45:52 AM.204: All scene data cleared
04:45:52 AM.204: ------------------------------------------------
04:45:52 AM.208: pulse-input: Server name: 'PulseAudio (on PipeWire 0.3.33) 15.0.0'
04:45:52 AM.208: pulse-input: Audio format: s16le, 48000 Hz, 2 channels
04:45:52 AM.208: pulse-input: Started recording from 'alsa_output.usb-Generic_Blue_Microphones_2033BAB00708-00.analog-stereo.monitor'
04:45:52 AM.208: [Loaded global audio device]: 'Desktop Audio'
04:45:52 AM.209: pulse-input: Server name: 'PulseAudio (on PipeWire 0.3.33) 15.0.0'
04:45:52 AM.209: pulse-input: Audio format: s16le, 48000 Hz, 2 channels
04:45:52 AM.209: pulse-input: Started recording from 'alsa_input.usb-Generic_Blue_Microphones_2033BAB00708-00.analog-stereo'
04:45:52 AM.209: [Loaded global audio device]: 'Mic/Aux'
04:45:52 AM.209: xshm-input: Geometry 1920x1080 @ 0,0
04:45:52 AM.210: Switched to scene 'Scene'
04:45:52 AM.210: ------------------------------------------------
04:45:52 AM.210: Loaded scenes:
04:45:52 AM.210: - scene 'Scene':
04:45:52 AM.210:     - source: 'Desktop' (xshm_input)
04:45:52 AM.210: ------------------------------------------------
04:45:52 AM.816: adding 21 milliseconds of audio buffering, total audio buffering is now 21 milliseconds (source: Desktop Audio)
04:45:52 AM.816: 
04:45:52 AM.858: adding 21 milliseconds of audio buffering, total audio buffering is now 42 milliseconds (source: Mic/Aux)
04:45:52 AM.858: 
04:46:10 AM.406: ==== Shutting down ==================================================
04:46:10 AM.412: pulse-input: Stopped recording from 'alsa_output.usb-Generic_Blue_Microphones_2033BAB00708-00.analog-stereo.monitor'
04:46:10 AM.412: pulse-input: Got 850 packets with 870400 frames
04:46:10 AM.412: pulse-input: Stopped recording from 'alsa_input.usb-Generic_Blue_Microphones_2033BAB00708-00.analog-stereo'
04:46:10 AM.412: pulse-input: Got 848 packets with 868352 frames
04:46:10 AM.412: All scene data cleared
04:46:10 AM.412: ------------------------------------------------
04:46:10 AM.415: X Error: GLXBadDrawable, Major opcode: 151, Minor opcode: 26, Serial: 16163
04:46:10 AM.415: Failed to make context current.
04:46:10 AM.415: X Error: GLXBadDrawable, Major opcode: 151, Minor opcode: 26, Serial: 16165
04:46:10 AM.415: Failed to make context current.
04:46:10 AM.416: X Error: GLXBadDrawable, Major opcode: 151, Minor opcode: 26, Serial: 16167
04:46:10 AM.416: Failed to make context current.
04:46:10 AM.448: [Scripting] Total detached callbacks: 0
04:46:10 AM.451: Freeing OBS context data
04:46:10 AM.455: == Profiler Results =============================
04:46:10 AM.455: run_program_init: 240.264 ms
04:46:10 AM.455:  ┣OBSApp::AppInit: 1.139 ms
04:46:10 AM.455:  ┃ ┗OBSApp::InitLocale: 0.496 ms
04:46:10 AM.455:  ┗OBSApp::OBSInit: 218.466 ms
04:46:10 AM.455:    ┣obs_startup: 15.038 ms
04:46:10 AM.455:    ┗OBSBasic::OBSInit: 178.823 ms
04:46:10 AM.455:      ┣OBSBasic::InitBasicConfig: 0.051 ms
04:46:10 AM.455:      ┣OBSBasic::ResetAudio: 0.071 ms
04:46:10 AM.455:      ┣OBSBasic::ResetVideo: 79.083 ms
04:46:10 AM.455:      ┣OBSBasic::InitOBSCallbacks: 0.002 ms
04:46:10 AM.455:      ┣OBSBasic::InitHotkeys: 0.03 ms
04:46:10 AM.455:      ┣obs_load_all_modules: 65.369 ms
04:46:10 AM.455:      ┃ ┣obs_init_module(decklink-captions.so): 0.021 ms
04:46:10 AM.455:      ┃ ┣obs_init_module(decklink-ouput-ui.so): 0.286 ms
04:46:10 AM.455:      ┃ ┣obs_init_module(frontend-tools.so): 44.815 ms
04:46:10 AM.455:      ┃ ┣obs_init_module(image-source.so): 0.004 ms
04:46:10 AM.455:      ┃ ┣obs_init_module(linux-alsa.so): 0.001 ms
04:46:10 AM.455:      ┃ ┣obs_init_module(linux-capture.so): 0.159 ms
04:46:10 AM.455:      ┃ ┣obs_init_module(linux-decklink.so): 0.078 ms
04:46:10 AM.455:      ┃ ┣obs_init_module(linux-jack.so): 0 ms
04:46:10 AM.455:      ┃ ┣obs_init_module(linux-pulseaudio.so): 0.001 ms
04:46:10 AM.455:      ┃ ┣obs_init_module(linux-v4l2.so): 3.539 ms
04:46:10 AM.455:      ┃ ┣obs_init_module(obs-ffmpeg.so): 0.245 ms
04:46:10 AM.455:      ┃ ┃ ┗nvenc_check: 0.224 ms
04:46:10 AM.455:      ┃ ┣obs_init_module(obs-filters.so): 0.013 ms
04:46:10 AM.455:      ┃ ┣obs_init_module(obs-libfdk.so): 0 ms
04:46:10 AM.455:      ┃ ┣obs_init_module(obs-outputs.so): 0.001 ms
04:46:10 AM.455:      ┃ ┣obs_init_module(obs-transitions.so): 0.003 ms
04:46:10 AM.455:      ┃ ┣obs_init_module(obs-x264.so): 0 ms
04:46:10 AM.455:      ┃ ┣obs_init_module(rtmp-services.so): 0.385 ms
04:46:10 AM.455:      ┃ ┗obs_init_module(text-freetype2.so): 0.004 ms
04:46:10 AM.455:      ┣OBSBasic::ResetOutputs: 0.061 ms
04:46:10 AM.455:      ┣OBSBasic::CreateHotkeys: 0.027 ms
04:46:10 AM.455:      ┣OBSBasic::InitService: 0.667 ms
04:46:10 AM.455:      ┣OBSBasic::InitPrimitives: 0.089 ms
04:46:10 AM.455:      ┗OBSBasic::Load: 6.924 ms
04:46:10 AM.455: obs_hotkey_thread(25 ms): min=0.057 ms, median=0.111 ms, max=4.938 ms, 99th percentile=2.77 ms, 100% below 25 ms
04:46:10 AM.455: audio_thread(Audio): min=0 ms, median=0.019 ms, max=0.212 ms, 99th percentile=0.038 ms
04:46:10 AM.455: obs_graphics_thread(16.6667 ms): min=0.158 ms, median=3.54 ms, max=28.975 ms, 99th percentile=6.271 ms, 99.8179% below 16.667 ms
04:46:10 AM.455:  ┣tick_sources: min=0 ms, median=3.203 ms, max=11.822 ms, 99th percentile=5.759 ms
04:46:10 AM.455:  ┣output_frame: min=0.079 ms, median=0.158 ms, max=3.651 ms, 99th percentile=0.444 ms
04:46:10 AM.455:  ┃ ┗gs_context(video->graphics): min=0.079 ms, median=0.157 ms, max=3.65 ms, 99th percentile=0.443 ms
04:46:10 AM.455:  ┃   ┣render_video: min=0.031 ms, median=0.087 ms, max=3.342 ms, 99th percentile=0.139 ms
04:46:10 AM.455:  ┃   ┃ ┗render_main_texture: min=0.024 ms, median=0.079 ms, max=3.324 ms, 99th percentile=0.129 ms
04:46:10 AM.455:  ┃   ┗gs_flush: min=0.003 ms, median=0.007 ms, max=0.384 ms, 99th percentile=0.033 ms
04:46:10 AM.455:  ┗render_displays: min=0.022 ms, median=0.138 ms, max=19.077 ms, 99th percentile=0.558 ms
04:46:10 AM.455: =================================================
04:46:10 AM.455: == Profiler Time Between Calls ==================
04:46:10 AM.455: obs_hotkey_thread(25 ms): min=25.114 ms, median=25.183 ms, max=30.019 ms, 95.4608% within ±2% of 25 ms (0% lower, 4.5392% higher)
04:46:10 AM.455: obs_graphics_thread(16.6667 ms): min=6.437 ms, median=16.667 ms, max=28.978 ms, 99.5442% within ±2% of 16.667 ms (0.273473% lower, 0.182315% higher)
04:46:10 AM.455: =================================================
04:46:10 AM.459: Number of memory leaks: 0
